…
***TODO-save renamed db in temporary db or else they will take up too
much space.***

``` r
summary <- assignTax(
  directory_path,
  data_tables,
  asv_abund_matrix,
  multithread = TRUE,
  barcode = "rps10_its",
)
#> # A tibble: 55 × 7
#>    sequence                  dada2_tax dada2_pid S1_rps10 S2_rps10 S1_its S2_its
#>    <chr>                     <chr>     <chr>     <chr>    <chr>    <chr>  <chr> 
#>  1 GAAAATCTTTGTGTCGGTGGTTCA… Eukaryot… 72.91242… 1434     30       0      0     
#>  2 GAAAATCTTTGTGTCGGTGGTTCA… Eukaryot… 99.77168… 835      337      0      0     
#>  3 GAAAATCTTTGTGTCGGTGGTTCA… Eukaryot… 100       0        831      0      0     
#>  4 GAAAATCTTTGTGTCGGTGGTTCA… Eukaryot… 86.87782… 0        546      0      0     
#>  5 AAAAAGTCGTAACAAGGTTTCCGT… Eukaryot… 90.94488… 0        0        472    0     
#>  6 AAAAAGTCGTAACAAGGTTTCCGT… Eukaryot… 90.94488… 0        0        419    0     
#>  7 AAAAAGTCGTAACAAGGTTTCCGT… Eukaryot… 90.55118… 0        0        0      331   
#>  8 AAGTCGTAACAAGGTTTCCGTAGG… Eukaryot… 76.21145… 0        0        41     205   
#>  9 GAAAATCTTTGTGTCGGTGGTTCA… Eukaryot… 99.54441… 0        240      0      0     
#> 10 AAAAAGTCGTAACAAGGTTTCCGT… Eukaryot… 90.55118… 0        0        0      233   
#> # ℹ 45 more rows
…
